com\example\demo\entity\Alerte.class
com\example\demo\entity\Statistique.class
com\example\demo\repository\AdversaireRepository.class
com\example\demo\entity\Client.class
com\example\demo\impl\AvocatServiceImpl.class
com\example\demo\impl\AdversaireServiceImpl.class
com\example\demo\entity\Affaire.class
com\example\demo\repository\IClient.class
com\example\demo\repository\IAudience.class
com\example\demo\repository\IInstanceJuridique.class
com\example\demo\controllers\ClientController.class
com\example\demo\entity\Audience.class
com\example\demo\repository\IAvocat.class
com\example\demo\controllers\AffaireController.class
com\example\demo\entity\Personne.class
com\example\demo\repository\AffaireRepository.class
com\example\demo\entity\Avocat.class
com\example\demo\controllers\CollegueController.class
com\example\demo\entity\Collegue.class
com\example\demo\controllers\AudienceController.class
com\example\demo\service\IAdversaire.class
com\example\demo\entity\Adversaire.class
com\example\demo\GestionApplication.class
com\example\demo\controllers\AdversaireController.class
com\example\demo\repository\ICollegue.class
com\example\demo\impl\AudienceServiceImpl.class
com\example\demo\entity\Frais.class
com\example\demo\entity\InstanceJuridique.class
com\example\demo\impl\AffaireServiceImpl.class
com\example\demo\controllers\InstanceJuridiqueController.class
